<?xml version="1.0" encoding="UTF-8" standalone="no"?>
<!-- Created with Inkscape (http://www.inkscape.org/) -->

<svg
   xmlns:dc="http://purl.org/dc/elements/1.1/"
   xmlns:cc="http://creativecommons.org/ns#"
   xmlns:rdf="http://www.w3.org/1999/02/22-rdf-syntax-ns#"
   xmlns:svg="http://www.w3.org/2000/svg"
   xmlns="http://www.w3.org/2000/svg"
   xmlns:sodipodi="http://sodipodi.sourceforge.net/DTD/sodipodi-0.dtd"
   xmlns:inkscape="http://www.inkscape.org/namespaces/inkscape"
   width="16.112944mm"
   height="15.052755mm"
   viewBox="0 0 16.112944 15.052755"
   version="1.1"
   id="svg8430"
   inkscape:version="0.92.3 (unknown)"
   sodipodi:docname="chip.svg">
  <defs
     id="defs8424" />
  <sodipodi:namedview
     id="base"
     pagecolor="#ffffff"
     bordercolor="#666666"
     borderopacity="1.0"
     inkscape:pageopacity="0.0"
     inkscape:pageshadow="2"
     inkscape:zoom="5.5167883"
     inkscape:cx="27.434497"
     inkscape:cy="20.474172"
     inkscape:document-units="mm"
     inkscape:current-layer="layer1"
     showgrid="false"
     fit-margin-top="0"
     fit-margin-left="0"
     fit-margin-right="0"
     fit-margin-bottom="0"
     inkscape:window-width="956"
     inkscape:window-height="1161"
     inkscape:window-x="960"
     inkscape:window-y="18"
     inkscape:window-maximized="0" />
  <metadata
     id="metadata8427">
    <rdf:RDF>
      <cc:Work
         rdf:about="">
        <dc:format>image/svg+xml</dc:format>
        <dc:type
           rdf:resource="http://purl.org/dc/dcmitype/StillImage" />
        <dc:title></dc:title>
      </cc:Work>
    </rdf:RDF>
  </metadata>
  <g
     inkscape:label="Layer 1"
     inkscape:groupmode="layer"
     id="layer1"
     transform="translate(-3.2828072,-274.35457)">
    <path
       id="rect13913-1-0-5-5"
       d="m 7.2350581,274.35457 c 0,0 -0.5005373,0.29185 -0.5005373,0.65452 v 13.71345 c 0,0.36267 0.2232774,0.65475 0.5005373,0.65475 h 8.2298369 c 0.27726,0 0.500549,-0.29208 0.500549,-0.65475 v -13.71345 c 0,-0.36267 -0.500549,-0.65452 -0.500549,-0.65452 z"
       style="opacity:1;fill:none;fill-opacity:1;fill-rule:nonzero;stroke:#000000;stroke-width:0.1;stroke-linejoin:round;stroke-miterlimit:4;stroke-dasharray:none;stroke-dashoffset:0;stroke-opacity:1"
       inkscape:connector-curvature="0"
       sodipodi:nodetypes="csssssscc" />
    <path
       inkscape:connector-curvature="0"
       id="path14029-3-1"
       d="m 16.018282,277.16551 h 0.326023 c 0.329115,0 0.618319,-0.14063 0.792394,-0.35564 h 1.661642 c 0.582968,0 0.597409,-0.19843 0.597409,-0.44471 0,-0.24629 -0.01444,-0.44449 -0.597409,-0.44449 H 17.18001 c -0.166514,-0.24808 -0.477299,-0.41495 -0.835705,-0.41495 h -0.326023 z"
       style="opacity:1;fill:none;fill-opacity:1;fill-rule:nonzero;stroke:#000000;stroke-width:0.1;stroke-linejoin:round;stroke-miterlimit:4;stroke-dasharray:none;stroke-dashoffset:0;stroke-opacity:1" />
    <path
       inkscape:connector-curvature="0"
       id="path14027-9-0"
       d="M 6.6183049,275.50572 H 6.3344795 c -0.3584063,0 -0.6691918,0.16687 -0.8357052,0.41495 H 3.8804427 c -0.5829674,0 -0.5976356,0.1982 -0.5976356,0.44449 0,0.24628 0.014668,0.44471 0.5976356,0.44471 h 1.6616428 c 0.1740749,0.21501 0.4632788,0.35564 0.792394,0.35564 h 0.2838254 z"
       style="opacity:1;fill:none;fill-opacity:1;fill-rule:nonzero;stroke:#000000;stroke-width:0.1;stroke-linejoin:round;stroke-miterlimit:4;stroke-dasharray:none;stroke-dashoffset:0;stroke-opacity:1" />
    <path
       id="rect13913-1-0-5"
       d="m 7.2243521,274.38461 c -0.2772598,0 -0.5005373,0.29185 -0.5005373,0.65452 v 13.71345 c 0,0.36267 0.2232775,0.65475 0.5005373,0.65475 h 8.2298369 c 0.27726,0 0.500549,-0.29208 0.500549,-0.65475 v -13.71345 c 0,-0.36267 -0.223289,-0.65452 -0.500549,-0.65452 h -2.273133 a 1.8738072,1.8738072 0 0 1 -1.841892,1.53488 1.8738072,1.8738072 0 0 1 -1.8414408,-1.53488 z"
       style="opacity:1;fill:none;fill-opacity:1;fill-rule:nonzero;stroke:#000000;stroke-width:0.1;stroke-linejoin:round;stroke-miterlimit:4;stroke-dasharray:none;stroke-dashoffset:0;stroke-opacity:1"
       inkscape:connector-curvature="0" />
    <path
       style="opacity:1;fill:none;fill-opacity:1;fill-rule:nonzero;stroke:#000000;stroke-width:0.1;stroke-linejoin:round;stroke-miterlimit:4;stroke-dasharray:none;stroke-dashoffset:0;stroke-opacity:1"
       d="m 16.018282,280.74003 h 0.326023 c 0.329115,0 0.618319,-0.14063 0.792394,-0.35564 h 1.661642 c 0.582968,0 0.597409,-0.19843 0.597409,-0.44471 0,-0.24629 -0.01444,-0.44449 -0.597409,-0.44449 H 17.18001 c -0.166514,-0.24808 -0.477299,-0.41495 -0.835705,-0.41495 h -0.326023 z"
       id="path14037-8-1"
       inkscape:connector-curvature="0" />
    <path
       style="opacity:1;fill:none;fill-opacity:1;fill-rule:nonzero;stroke:#000000;stroke-width:0.1;stroke-linejoin:round;stroke-miterlimit:4;stroke-dasharray:none;stroke-dashoffset:0;stroke-opacity:1"
       d="M 6.6183049,279.08024 H 6.3344795 c -0.3584063,0 -0.6691918,0.16687 -0.8357052,0.41495 H 3.8804427 c -0.5829674,0 -0.5976356,0.1982 -0.5976356,0.44449 0,0.24628 0.014668,0.44471 0.5976356,0.44471 h 1.6616428 c 0.1740749,0.21501 0.4632788,0.35564 0.792394,0.35564 h 0.2838254 z"
       id="path14039-5-0"
       inkscape:connector-curvature="0" />
    <path
       inkscape:connector-curvature="0"
       id="path14043-9-5"
       d="m 16.018282,284.31455 h 0.326023 c 0.329115,0 0.618319,-0.14063 0.792394,-0.35564 h 1.661642 c 0.582968,0 0.597409,-0.19843 0.597409,-0.44471 0,-0.24629 -0.01444,-0.44449 -0.597409,-0.44449 H 17.18001 c -0.166514,-0.24808 -0.477299,-0.41495 -0.835705,-0.41495 h -0.326023 z"
       style="opacity:1;fill:none;fill-opacity:1;fill-rule:nonzero;stroke:#000000;stroke-width:0.1;stroke-linejoin:round;stroke-miterlimit:4;stroke-dasharray:none;stroke-dashoffset:0;stroke-opacity:1" />
    <path
       inkscape:connector-curvature="0"
       id="path14045-6-0"
       d="M 6.6183049,282.65476 H 6.3344795 c -0.3584063,0 -0.6691918,0.16687 -0.8357052,0.41495 H 3.8804427 c -0.5829674,0 -0.5976356,0.1982 -0.5976356,0.44449 0,0.24628 0.014668,0.44471 0.5976356,0.44471 h 1.6616428 c 0.1740749,0.21501 0.4632788,0.35564 0.792394,0.35564 h 0.2838254 z"
       style="opacity:1;fill:none;fill-opacity:1;fill-rule:nonzero;stroke:#000000;stroke-width:0.1;stroke-linejoin:round;stroke-miterlimit:4;stroke-dasharray:none;stroke-dashoffset:0;stroke-opacity:1" />
    <path
       style="opacity:1;fill:none;fill-opacity:1;fill-rule:nonzero;stroke:#000000;stroke-width:0.1;stroke-linejoin:round;stroke-miterlimit:4;stroke-dasharray:none;stroke-dashoffset:0;stroke-opacity:1"
       d="m 16.018282,287.88906 h 0.326023 c 0.329115,0 0.618319,-0.14063 0.792394,-0.35564 h 1.661642 c 0.582968,0 0.597409,-0.19843 0.597409,-0.44471 0,-0.24629 -0.01444,-0.44449 -0.597409,-0.44449 H 17.18001 c -0.166514,-0.24808 -0.477299,-0.41495 -0.835705,-0.41495 h -0.326023 z"
       id="path14049-8-4"
       inkscape:connector-curvature="0" />
    <path
       style="opacity:1;fill:none;fill-opacity:1;fill-rule:nonzero;stroke:#000000;stroke-width:0.1;stroke-linejoin:round;stroke-miterlimit:4;stroke-dasharray:none;stroke-dashoffset:0;stroke-opacity:1"
       d="M 6.6183049,286.22927 H 6.3344795 c -0.3584063,0 -0.6691918,0.16687 -0.8357052,0.41495 H 3.8804427 c -0.5829674,0 -0.5976356,0.1982 -0.5976356,0.44449 0,0.24628 0.014668,0.44471 0.5976356,0.44471 h 1.6616428 c 0.1740749,0.21501 0.4632788,0.35564 0.792394,0.35564 h 0.2838254 z"
       id="path14051-5-6"
       inkscape:connector-curvature="0" />
    <path
       style="opacity:1;fill:none;fill-opacity:1;fill-rule:nonzero;stroke:#000000;stroke-width:0.1;stroke-linejoin:round;stroke-miterlimit:4;stroke-dasharray:none;stroke-dashoffset:0;stroke-opacity:1"
       d="m 13.819164,274.93139 c -0.609765,0.0951 -0.567429,0.94171 -1.124819,1.16971 -1.172858,0.83401 -3.0878352,0.3046 -3.5503001,-1.09225 -0.6176838,-0.0525 -1.3142989,-0.0753 -1.8949345,0.0212 -0.1769285,0.6598 0.065093,1.37722 -0.047325,2.05891 0.033094,3.97568 -0.076311,7.9825 0.0564,11.93901 0.55265,0.11219 1.1561624,-0.0747 1.7286286,0.0164 2.138028,-0.0322 4.337506,0.0868 6.438402,-0.0601 0.204367,-0.82161 -0.06651,-1.67611 0.0517,-2.51642 -0.03343,-3.81881 0.07645,-7.66866 -0.05588,-11.4687 -0.499977,-0.11874 -1.046077,0.0895 -1.559309,-0.0698 l -0.04256,0.002 z"
       id="rect13913-1-0-5-3"
       inkscape:connector-curvature="0" />
    <circle
       style="opacity:1;fill:none;fill-opacity:1;fill-rule:nonzero;stroke:#000000;stroke-width:0.1;stroke-linejoin:round;stroke-miterlimit:4;stroke-dasharray:none;stroke-dashoffset:0;stroke-opacity:1"
       id="path6641"
       cx="8.2286129"
       cy="275.96118"
       r="0.51802939" />
    <path
       style="opacity:1;fill:none;fill-opacity:1;fill-rule:nonzero;stroke:#000000;stroke-width:0.1;stroke-linejoin:round;stroke-miterlimit:4;stroke-dasharray:none;stroke-dashoffset:0;stroke-opacity:1"
       d="m 8.1744571,275.49696 c -0.8931811,0.0912 -0.1341046,1.40748 0.4021113,0.70219 0.2201097,-0.29286 -0.033595,-0.73541 -0.4021113,-0.70219 z"
       id="path6641-3"
       inkscape:connector-curvature="0" />
  </g>
</svg>
